{
    "key": "group_5520c23664ed9",
    "title": "Blocks",
    "fields": [
        {
            "key": "field_5526a0b891f00",
            "label": "Blocks",
            "name": "blocks",
            "type": "repeater",
            "instructions": "",
            "required": 0,
            "conditional_logic": 0,
            "wrapper": {
                "width": "",
                "class": "",
                "id": ""
            },
            "collapsed": "",
            "min": 0,
            "max": 0,
            "layout": "block",
            "button_label": "+ Add Block",
            "sub_fields": [
                {
                    "key": "field_5d1cd6c91ab7a",
                    "label": "Content",
                    "name": "",
                    "type": "tab",
                    "instructions": "",
                    "required": 0,
                    "conditional_logic": 0,
                    "wrapper": {
                        "width": "",
                        "class": "",
                        "id": ""
                    },
                    "placement": "top",
                    "endpoint": 0
                },
                {
                    "key": "field_5526a84439317",
                    "label": "Block",
                    "name": "block",
                    "type": "flexible_content",
                    "instructions": "",
                    "required": 0,
                    "conditional_logic": 0,
                    "wrapper": {
                        "width": "",
                        "class": "",
                        "id": ""
                    },
                    "layouts": {
                        "5a31990d0a391": {
                            "key": "5a31990d0a391",
                            "name": "hero",
                            "label": "Hero",
                            "display": "row",
                            "sub_fields": [
                                {
                                    "key": "field_5db0ac9509dc1",
                                    "label": "Hero",
                                    "name": "hero",
                                    "type": "repeater",
                                    "instructions": "",
                                    "required": 0,
                                    "conditional_logic": 0,
                                    "wrapper": {
                                        "width": "",
                                        "class": "",
                                        "id": ""
                                    },
                                    "collapsed": "",
                                    "min": 1,
                                    "max": 0,
                                    "layout": "block",
                                    "button_label": "Add Hero",
                                    "sub_fields": [
                                        {
                                            "key": "field_5a31990d0a393",
                                            "label": "Image",
                                            "name": "image",
                                            "type": "image",
                                            "instructions": "",
                                            "required": 1,
                                            "conditional_logic": [
                                                [
                                                    {
                                                        "field": "field_5a31990d0a392",
                                                        "operator": "==",
                                                        "value": "image"
                                                    }
                                                ]
                                            ],
                                            "wrapper": {
                                                "width": "",
                                                "class": "",
                                                "id": ""
                                            },
                                            "return_format": "array",
                                            "preview_size": "thumbnail",
                                            "library": "all",
                                            "min_width": "",
                                            "min_height": "",
                                            "min_size": "",
                                            "max_width": "",
                                            "max_height": "",
                                            "max_size": "",
                                            "mime_types": ""
                                        },
                                        {
                                            "key": "field_5d1cd7496e98e",
                                            "label": "Content",
                                            "name": "content",
                                            "type": "wysiwyg",
                                            "instructions": "",
                                            "required": 0,
                                            "conditional_logic": 0,
                                            "wrapper": {
                                                "width": "",
                                                "class": "",
                                                "id": ""
                                            },
                                            "default_value": "",
                                            "tabs": "all",
                                            "toolbar": "full",
                                            "media_upload": 1,
                                            "delay": 0
                                        },
                                        {
                                            "key": "field_5a31990d0a394",
                                            "label": "Video URL",
                                            "name": "video",
                                            "type": "oembed",
                                            "instructions": "",
                                            "required": 0,
                                            "conditional_logic": 0,
                                            "wrapper": {
                                                "width": "",
                                                "class": "",
                                                "id": ""
                                            },
                                            "width": "",
                                            "height": ""
                                        },
                                        {
                                            "key": "field_5db09e2c5f383",
                                            "label": "Video Text",
                                            "name": "video_text",
                                            "type": "text",
                                            "instructions": "",
                                            "required": 0,
                                            "conditional_logic": 0,
                                            "wrapper": {
                                                "width": "",
                                                "class": "",
                                                "id": ""
                                            },
                                            "default_value": "",
                                            "placeholder": "",
                                            "prepend": "",
                                            "append": "",
                                            "maxlength": ""
                                        }
                                    ]
                                }
                            ],
                            "min": "",
                            "max": ""
                        },
                        "5548f09b3d945": {
                            "key": "5548f09b3d945",
                            "name": "open_content",
                            "label": "Open Content",
                            "display": "row",
                            "sub_fields": [
                                {
                                    "key": "field_58d13585d5394",
                                    "label": "Columns",
                                    "name": "columns",
                                    "type": "repeater",
                                    "instructions": "",
                                    "required": 0,
                                    "conditional_logic": 0,
                                    "wrapper": {
                                        "width": "",
                                        "class": "",
                                        "id": ""
                                    },
                                    "collapsed": "",
                                    "min": 1,
                                    "max": 0,
                                    "layout": "block",
                                    "button_label": "Add Column",
                                    "sub_fields": [
                                        {
                                            "key": "field_58d135a4d5395",
                                            "label": "Column Width",
                                            "name": "column_width",
                                            "type": "button_group",
                                            "instructions": "",
                                            "required": 0,
                                            "conditional_logic": 0,
                                            "wrapper": {
                                                "width": "",
                                                "class": "",
                                                "id": ""
                                            },
                                            "choices": {
                                                "3": "25%",
                                                "4": "33%",
                                                "6": "50%",
                                                "8": "66%",
                                                "9": "75%",
                                                "12": "100%"
                                            },
                                            "allow_null": 0,
                                            "default_value": "",
                                            "layout": "horizontal",
                                            "return_format": "value"
                                        },
                                        {
                                            "key": "field_58d135bed5396",
                                            "label": "Column Content",
                                            "name": "column_content",
                                            "type": "wysiwyg",
                                            "instructions": "",
                                            "required": 0,
                                            "conditional_logic": 0,
                                            "wrapper": {
                                                "width": "",
                                                "class": "",
                                                "id": ""
                                            },
                                            "default_value": "",
                                            "tabs": "all",
                                            "toolbar": "full",
                                            "media_upload": 1,
                                            "delay": 0
                                        }
                                    ]
                                }
                            ],
                            "min": "",
                            "max": ""
                        },
                        "layout_5db0a3d5cfb1e": {
                            "key": "layout_5db0a3d5cfb1e",
                            "name": "section_title",
                            "label": "Section Title",
                            "display": "row",
                            "sub_fields": [
                                {
                                    "key": "field_5db0a3dccfb1f",
                                    "label": "Headline",
                                    "name": "headline",
                                    "type": "wysiwyg",
                                    "instructions": "Only header and colors tags will work in this block. All other tags will get striped out.",
                                    "required": 0,
                                    "conditional_logic": 0,
                                    "wrapper": {
                                        "width": "",
                                        "class": "",
                                        "id": ""
                                    },
                                    "default_value": "",
                                    "tabs": "all",
                                    "toolbar": "full",
                                    "media_upload": 0,
                                    "delay": 0
                                }
                            ],
                            "min": "",
                            "max": ""
                        },
                        "layout_5d2cb30913203": {
                            "key": "layout_5d2cb30913203",
                            "name": "text_media_content",
                            "label": "Text\/Media Content",
                            "display": "row",
                            "sub_fields": [
                                {
                                    "key": "field_5d2cb30913204",
                                    "label": "Featured Item",
                                    "name": "featured_item",
                                    "type": "button_group",
                                    "instructions": "",
                                    "required": 0,
                                    "conditional_logic": 0,
                                    "wrapper": {
                                        "width": "",
                                        "class": "",
                                        "id": ""
                                    },
                                    "choices": {
                                        "image": "<span class=\"dashicons dashicons-format-image\"><\/span> Image",
                                        "video": "<span class=\"dashicons dashicons-video-alt\"><\/span> Video"
                                    },
                                    "allow_null": 0,
                                    "default_value": "",
                                    "layout": "horizontal",
                                    "return_format": "value"
                                },
                                {
                                    "key": "field_5d2cb30913205",
                                    "label": "Image",
                                    "name": "image",
                                    "type": "image",
                                    "instructions": "",
                                    "required": 0,
                                    "conditional_logic": [
                                        [
                                            {
                                                "field": "field_5d2cb30913204",
                                                "operator": "==",
                                                "value": "image"
                                            }
                                        ]
                                    ],
                                    "wrapper": {
                                        "width": "",
                                        "class": "",
                                        "id": ""
                                    },
                                    "return_format": "array",
                                    "preview_size": "thumbnail",
                                    "library": "all",
                                    "min_width": "",
                                    "min_height": "",
                                    "min_size": "",
                                    "max_width": "",
                                    "max_height": "",
                                    "max_size": "",
                                    "mime_types": ""
                                },
                                {
                                    "key": "field_5d2cb49d7d366",
                                    "label": "Video Image",
                                    "name": "video_image",
                                    "type": "image",
                                    "instructions": "",
                                    "required": 1,
                                    "conditional_logic": [
                                        [
                                            {
                                                "field": "field_5d2cb30913204",
                                                "operator": "==",
                                                "value": "video"
                                            }
                                        ]
                                    ],
                                    "wrapper": {
                                        "width": "",
                                        "class": "",
                                        "id": ""
                                    },
                                    "return_format": "array",
                                    "preview_size": "medium",
                                    "library": "all",
                                    "min_width": "",
                                    "min_height": "",
                                    "min_size": "",
                                    "max_width": "",
                                    "max_height": "",
                                    "max_size": "",
                                    "mime_types": ""
                                },
                                {
                                    "key": "field_5d2cb30913206",
                                    "label": "Video",
                                    "name": "video",
                                    "type": "oembed",
                                    "instructions": "",
                                    "required": 0,
                                    "conditional_logic": [
                                        [
                                            {
                                                "field": "field_5d2cb30913204",
                                                "operator": "==",
                                                "value": "video"
                                            }
                                        ]
                                    ],
                                    "wrapper": {
                                        "width": "",
                                        "class": "",
                                        "id": ""
                                    },
                                    "width": "",
                                    "height": ""
                                },
                                {
                                    "key": "field_5d2cb30913207",
                                    "label": "Placement",
                                    "name": "item_placement",
                                    "type": "button_group",
                                    "instructions": "",
                                    "required": 0,
                                    "conditional_logic": 0,
                                    "wrapper": {
                                        "width": "",
                                        "class": "",
                                        "id": ""
                                    },
                                    "choices": {
                                        "left": "<span class=\"dashicons dashicons-align-left\"><\/span> Left",
                                        "right": "Right <span class=\"dashicons dashicons-align-right\"><\/span>"
                                    },
                                    "allow_null": 0,
                                    "default_value": "",
                                    "layout": "horizontal",
                                    "return_format": "value"
                                },
                                {
                                    "key": "field_5d2cb30913208",
                                    "label": "Item Width",
                                    "name": "item_width",
                                    "type": "button_group",
                                    "instructions": "",
                                    "required": 0,
                                    "conditional_logic": 0,
                                    "wrapper": {
                                        "width": "",
                                        "class": "",
                                        "id": ""
                                    },
                                    "choices": {
                                        "2": "16%",
                                        "3": "25%",
                                        "4": "33%",
                                        "5": "42%",
                                        "6": "50%",
                                        "7": "59%",
                                        "8": "66%",
                                        "9": "75%",
                                        "10": "84%"
                                    },
                                    "allow_null": 0,
                                    "default_value": "",
                                    "layout": "horizontal",
                                    "return_format": "value"
                                },
                                {
                                    "key": "field_5d2cb30913209",
                                    "label": "Content",
                                    "name": "content",
                                    "type": "wysiwyg",
                                    "instructions": "",
                                    "required": 0,
                                    "conditional_logic": 0,
                                    "wrapper": {
                                        "width": "",
                                        "class": "",
                                        "id": ""
                                    },
                                    "default_value": "",
                                    "tabs": "all",
                                    "toolbar": "full",
                                    "media_upload": 0,
                                    "delay": 0
                                }
                            ],
                            "min": "",
                            "max": ""
                        },
                        "layout_5db0a464ae692": {
                            "key": "layout_5db0a464ae692",
                            "name": "icon_grid",
                            "label": "Icon Grid",
                            "display": "row",
                            "sub_fields": [
                                {
                                    "key": "field_5db0a480ae693",
                                    "label": "Icons",
                                    "name": "icons",
                                    "type": "repeater",
                                    "instructions": "",
                                    "required": 0,
                                    "conditional_logic": 0,
                                    "wrapper": {
                                        "width": "",
                                        "class": "",
                                        "id": ""
                                    },
                                    "collapsed": "",
                                    "min": 1,
                                    "max": 0,
                                    "layout": "block",
                                    "button_label": "Add Icon",
                                    "sub_fields": [
                                        {
                                            "key": "field_5db0a492ae694",
                                            "label": "Icon",
                                            "name": "icon",
                                            "type": "image",
                                            "instructions": "",
                                            "required": 0,
                                            "conditional_logic": 0,
                                            "wrapper": {
                                                "width": "",
                                                "class": "",
                                                "id": ""
                                            },
                                            "return_format": "array",
                                            "preview_size": "medium",
                                            "library": "all",
                                            "min_width": "",
                                            "min_height": "",
                                            "min_size": "",
                                            "max_width": "",
                                            "max_height": "",
                                            "max_size": "",
                                            "mime_types": ""
                                        },
                                        {
                                            "key": "field_5db0a49bae695",
                                            "label": "Icon Text",
                                            "name": "icon_text",
                                            "type": "wysiwyg",
                                            "instructions": "",
                                            "required": 0,
                                            "conditional_logic": 0,
                                            "wrapper": {
                                                "width": "",
                                                "class": "",
                                                "id": ""
                                            },
                                            "default_value": "",
                                            "tabs": "all",
                                            "toolbar": "full",
                                            "media_upload": 0,
                                            "delay": 0
                                        }
                                    ]
                                }
                            ],
                            "min": "",
                            "max": ""
                        },
                        "layout_5dc1defd0d964": {
                            "key": "layout_5dc1defd0d964",
                            "name": "blogs",
                            "label": "Blogs\/News",
                            "display": "row",
                            "sub_fields": [
                                {
                                    "key": "field_5dc1df090d965",
                                    "label": "Category",
                                    "name": "category",
                                    "type": "taxonomy",
                                    "instructions": "If left blank it will pull the top most recent Posts",
                                    "required": 0,
                                    "conditional_logic": 0,
                                    "wrapper": {
                                        "width": "",
                                        "class": "",
                                        "id": ""
                                    },
                                    "taxonomy": "category",
                                    "field_type": "select",
                                    "allow_null": 1,
                                    "add_term": 0,
                                    "save_terms": 0,
                                    "load_terms": 0,
                                    "return_format": "object",
                                    "multiple": 0
                                }
                            ],
                            "min": "",
                            "max": ""
                        },
                        "layout_5d1cdcb49c503": {
                            "key": "layout_5d1cdcb49c503",
                            "name": "team",
                            "label": "Team",
                            "display": "row",
                            "sub_fields": [
                                {
                                    "key": "field_5d1cdd0a9c504",
                                    "label": "Person",
                                    "name": "person",
                                    "type": "repeater",
                                    "instructions": "",
                                    "required": 0,
                                    "conditional_logic": 0,
                                    "wrapper": {
                                        "width": "",
                                        "class": "",
                                        "id": ""
                                    },
                                    "collapsed": "",
                                    "min": 1,
                                    "max": 0,
                                    "layout": "block",
                                    "button_label": "Add person",
                                    "sub_fields": [
                                        {
                                            "key": "field_5d1cdd229c506",
                                            "label": "Image",
                                            "name": "image",
                                            "type": "image",
                                            "instructions": "",
                                            "required": 1,
                                            "conditional_logic": 0,
                                            "wrapper": {
                                                "width": "",
                                                "class": "",
                                                "id": ""
                                            },
                                            "return_format": "array",
                                            "preview_size": "medium",
                                            "library": "all",
                                            "min_width": "",
                                            "min_height": "",
                                            "min_size": "",
                                            "max_width": "",
                                            "max_height": "",
                                            "max_size": "",
                                            "mime_types": ""
                                        },
                                        {
                                            "key": "field_5d1cdd169c505",
                                            "label": "Name",
                                            "name": "name",
                                            "type": "text",
                                            "instructions": "",
                                            "required": 1,
                                            "conditional_logic": 0,
                                            "wrapper": {
                                                "width": "",
                                                "class": "",
                                                "id": ""
                                            },
                                            "default_value": "",
                                            "placeholder": "",
                                            "prepend": "",
                                            "append": "",
                                            "maxlength": ""
                                        },
                                        {
                                            "key": "field_5d1cdd2f9c507",
                                            "label": "Title",
                                            "name": "title",
                                            "type": "text",
                                            "instructions": "",
                                            "required": 0,
                                            "conditional_logic": 0,
                                            "wrapper": {
                                                "width": "",
                                                "class": "",
                                                "id": ""
                                            },
                                            "default_value": "",
                                            "placeholder": "",
                                            "prepend": "",
                                            "append": "",
                                            "maxlength": ""
                                        },
                                        {
                                            "key": "field_5db0a8381acd1",
                                            "label": "Bio Content",
                                            "name": "bio_content",
                                            "type": "wysiwyg",
                                            "instructions": "",
                                            "required": 0,
                                            "conditional_logic": 0,
                                            "wrapper": {
                                                "width": "",
                                                "class": "",
                                                "id": ""
                                            },
                                            "default_value": "",
                                            "tabs": "all",
                                            "toolbar": "basic",
                                            "media_upload": 0,
                                            "delay": 0
                                        }
                                    ]
                                }
                            ],
                            "min": "",
                            "max": ""
                        },
                        "layout_5db0a22fb7b85": {
                            "key": "layout_5db0a22fb7b85",
                            "name": "content_forward_path",
                            "label": "Content Forward Path",
                            "display": "row",
                            "sub_fields": [
                                {
                                    "key": "field_5db0a22fb7b8b",
                                    "label": "Item Width",
                                    "name": "item_width",
                                    "type": "button_group",
                                    "instructions": "",
                                    "required": 0,
                                    "conditional_logic": 0,
                                    "wrapper": {
                                        "width": "",
                                        "class": "",
                                        "id": ""
                                    },
                                    "choices": {
                                        "2": "16%",
                                        "3": "25%",
                                        "4": "33%",
                                        "5": "42%",
                                        "6": "50%",
                                        "7": "59%",
                                        "8": "66%",
                                        "9": "75%",
                                        "10": "84%"
                                    },
                                    "allow_null": 0,
                                    "default_value": "",
                                    "layout": "horizontal",
                                    "return_format": "value"
                                },
                                {
                                    "key": "field_5db0cb8d267f0",
                                    "label": "Placement",
                                    "name": "item_placement",
                                    "type": "button_group",
                                    "instructions": "",
                                    "required": 0,
                                    "conditional_logic": 0,
                                    "wrapper": {
                                        "width": "",
                                        "class": "",
                                        "id": ""
                                    },
                                    "choices": {
                                        "left": "<span class=\"dashicons dashicons-align-left\"><\/span> Left",
                                        "right": "Right <span class=\"dashicons dashicons-align-right\"><\/span>"
                                    },
                                    "allow_null": 0,
                                    "default_value": "",
                                    "layout": "horizontal",
                                    "return_format": "value"
                                },
                                {
                                    "key": "field_5db0a22fb7b8c",
                                    "label": "Content",
                                    "name": "content",
                                    "type": "wysiwyg",
                                    "instructions": "",
                                    "required": 0,
                                    "conditional_logic": 0,
                                    "wrapper": {
                                        "width": "",
                                        "class": "",
                                        "id": ""
                                    },
                                    "default_value": "",
                                    "tabs": "all",
                                    "toolbar": "full",
                                    "media_upload": 0,
                                    "delay": 0
                                },
                                {
                                    "key": "field_5db0a22fb7b87",
                                    "label": "Images",
                                    "name": "images",
                                    "type": "repeater",
                                    "instructions": "",
                                    "required": 0,
                                    "conditional_logic": 0,
                                    "wrapper": {
                                        "width": "",
                                        "class": "",
                                        "id": ""
                                    },
                                    "collapsed": "",
                                    "min": 1,
                                    "max": 0,
                                    "layout": "block",
                                    "button_label": "",
                                    "sub_fields": [
                                        {
                                            "key": "field_5db0a2b2b7b8d",
                                            "label": "Image",
                                            "name": "image",
                                            "type": "image",
                                            "instructions": "",
                                            "required": 0,
                                            "conditional_logic": 0,
                                            "wrapper": {
                                                "width": "",
                                                "class": "",
                                                "id": ""
                                            },
                                            "return_format": "array",
                                            "preview_size": "thumbnail",
                                            "library": "all",
                                            "min_width": "",
                                            "min_height": "",
                                            "min_size": "",
                                            "max_width": "",
                                            "max_height": "",
                                            "max_size": "",
                                            "mime_types": ""
                                        },
                                        {
                                            "key": "field_5db0a2e7b7b8f",
                                            "label": "Url",
                                            "name": "url",
                                            "type": "link",
                                            "instructions": "",
                                            "required": 0,
                                            "conditional_logic": 0,
                                            "wrapper": {
                                                "width": "",
                                                "class": "",
                                                "id": ""
                                            },
                                            "return_format": "array"
                                        }
                                    ]
                                }
                            ],
                            "min": "",
                            "max": ""
                        },
                        "5a31a4328515e": {
                            "key": "5a31a4328515e",
                            "name": "image_forward_path",
                            "label": "Image Forward Path",
                            "display": "row",
                            "sub_fields": [
                                {
                                    "key": "field_5a31a43285160",
                                    "label": "Forward Path Section",
                                    "name": "forward_path",
                                    "type": "repeater",
                                    "instructions": "",
                                    "required": 0,
                                    "conditional_logic": 0,
                                    "wrapper": {
                                        "width": "",
                                        "class": "",
                                        "id": ""
                                    },
                                    "collapsed": "",
                                    "min": 1,
                                    "max": 0,
                                    "layout": "block",
                                    "button_label": "Add Forward Path",
                                    "sub_fields": [
                                        {
                                            "key": "field_5a31a43285162",
                                            "label": "Forward Path Image",
                                            "name": "forward_path_image",
                                            "type": "image",
                                            "instructions": "",
                                            "required": 0,
                                            "conditional_logic": 0,
                                            "wrapper": {
                                                "width": "",
                                                "class": "",
                                                "id": ""
                                            },
                                            "return_format": "array",
                                            "preview_size": "thumbnail",
                                            "library": "all",
                                            "min_width": "",
                                            "min_height": "",
                                            "min_size": "",
                                            "max_width": "",
                                            "max_height": "",
                                            "max_size": "",
                                            "mime_types": ""
                                        },
                                        {
                                            "key": "field_5a31a43285167",
                                            "label": "Forward Path Link",
                                            "name": "forward_path_link",
                                            "type": "link",
                                            "instructions": "",
                                            "required": 1,
                                            "conditional_logic": 0,
                                            "wrapper": {
                                                "width": "",
                                                "class": "",
                                                "id": ""
                                            },
                                            "return_format": "array"
                                        }
                                    ]
                                }
                            ],
                            "min": "",
                            "max": ""
                        },
                        "5a31ac0136055": {
                            "key": "5a31ac0136055",
                            "name": "call_to_action",
                            "label": "Call to Action",
                            "display": "row",
                            "sub_fields": [
                                {
                                    "key": "field_5a31ac1436056",
                                    "label": "CTA Selection",
                                    "name": "cta_selection",
                                    "type": "select",
                                    "instructions": "",
                                    "required": 0,
                                    "conditional_logic": 0,
                                    "wrapper": {
                                        "width": "",
                                        "class": "",
                                        "id": ""
                                    },
                                    "choices": [
                                        "Contact",
                                        "Test"
                                    ],
                                    "default_value": [],
                                    "allow_null": 0,
                                    "multiple": 0,
                                    "ui": 0,
                                    "return_format": "value",
                                    "ajax": 0,
                                    "placeholder": ""
                                }
                            ],
                            "min": "",
                            "max": ""
                        },
                        "5548f17543b37": {
                            "key": "5548f17543b37",
                            "name": "image_gallery",
                            "label": "Image Gallery",
                            "display": "row",
                            "sub_fields": [
                                {
                                    "key": "field_5548f17943b38",
                                    "label": "Images",
                                    "name": "images",
                                    "type": "gallery",
                                    "instructions": "",
                                    "required": 0,
                                    "conditional_logic": 0,
                                    "wrapper": {
                                        "width": "",
                                        "class": "",
                                        "id": ""
                                    },
                                    "min": "",
                                    "max": "",
                                    "preview_size": "thumbnail",
                                    "library": "all",
                                    "min_width": "",
                                    "min_height": "",
                                    "min_size": "",
                                    "max_width": "",
                                    "max_height": "",
                                    "max_size": "",
                                    "mime_types": "",
                                    "insert": "append",
                                    "return_format": "array"
                                }
                            ],
                            "min": "",
                            "max": ""
                        },
                        "582dfa94be1ca": {
                            "key": "582dfa94be1ca",
                            "name": "forward_path",
                            "label": "Forward Path",
                            "display": "row",
                            "sub_fields": [
                                {
                                    "key": "field_582dfaa6be1cb",
                                    "label": "Forward Path Section",
                                    "name": "forward_path",
                                    "type": "repeater",
                                    "instructions": "",
                                    "required": 0,
                                    "conditional_logic": 0,
                                    "wrapper": {
                                        "width": "",
                                        "class": "",
                                        "id": ""
                                    },
                                    "collapsed": "",
                                    "min": 1,
                                    "max": 0,
                                    "layout": "block",
                                    "button_label": "Add Forward Path",
                                    "sub_fields": [
                                        {
                                            "key": "field_5a1da7d1ddad5",
                                            "label": "Block Width",
                                            "name": "block_width",
                                            "type": "button_group",
                                            "instructions": "",
                                            "required": 0,
                                            "conditional_logic": 0,
                                            "wrapper": {
                                                "width": "",
                                                "class": "",
                                                "id": ""
                                            },
                                            "choices": {
                                                "4": "33%",
                                                "6": "50%"
                                            },
                                            "allow_null": 0,
                                            "default_value": "",
                                            "layout": "horizontal",
                                            "return_format": "value"
                                        },
                                        {
                                            "key": "field_582dfae3be1cc",
                                            "label": "Forward Path Title",
                                            "name": "forward_path_title",
                                            "type": "text",
                                            "instructions": "",
                                            "required": 0,
                                            "conditional_logic": 0,
                                            "wrapper": {
                                                "width": "",
                                                "class": "",
                                                "id": ""
                                            },
                                            "default_value": "",
                                            "maxlength": "",
                                            "placeholder": "",
                                            "prepend": "",
                                            "append": ""
                                        },
                                        {
                                            "key": "field_582dfb09be1cd",
                                            "label": "Forward Path Text",
                                            "name": "forward_path_text",
                                            "type": "textarea",
                                            "instructions": "",
                                            "required": 0,
                                            "conditional_logic": 0,
                                            "wrapper": {
                                                "width": "",
                                                "class": "",
                                                "id": ""
                                            },
                                            "default_value": "",
                                            "new_lines": "wpautop",
                                            "maxlength": "",
                                            "placeholder": "",
                                            "rows": ""
                                        },
                                        {
                                            "key": "field_5a31a1fe2ee20",
                                            "label": "Forward Path Link",
                                            "name": "forward_path_link",
                                            "type": "link",
                                            "instructions": "",
                                            "required": 1,
                                            "conditional_logic": 0,
                                            "wrapper": {
                                                "width": "",
                                                "class": "",
                                                "id": ""
                                            },
                                            "return_format": "array"
                                        }
                                    ]
                                }
                            ],
                            "min": "",
                            "max": ""
                        },
                        "layout_5db0d57bbe3c0": {
                            "key": "layout_5db0d57bbe3c0",
                            "name": "faq",
                            "label": "FAQ",
                            "display": "row",
                            "sub_fields": [
                                {
                                    "key": "field_5db751017ba2a",
                                    "label": "Title",
                                    "name": "title",
                                    "type": "text",
                                    "instructions": "",
                                    "required": 0,
                                    "conditional_logic": 0,
                                    "wrapper": {
                                        "width": "",
                                        "class": "",
                                        "id": ""
                                    },
                                    "default_value": "",
                                    "placeholder": "",
                                    "prepend": "",
                                    "append": "",
                                    "maxlength": ""
                                },
                                {
                                    "key": "field_5db0d582be3c1",
                                    "label": "Questions",
                                    "name": "questions",
                                    "type": "repeater",
                                    "instructions": "",
                                    "required": 0,
                                    "conditional_logic": 0,
                                    "wrapper": {
                                        "width": "",
                                        "class": "",
                                        "id": ""
                                    },
                                    "collapsed": "",
                                    "min": 1,
                                    "max": 0,
                                    "layout": "block",
                                    "button_label": "Add Question",
                                    "sub_fields": [
                                        {
                                            "key": "field_5db0d5ffbe3c2",
                                            "label": "Question",
                                            "name": "question",
                                            "type": "text",
                                            "instructions": "",
                                            "required": 0,
                                            "conditional_logic": 0,
                                            "wrapper": {
                                                "width": "",
                                                "class": "",
                                                "id": ""
                                            },
                                            "default_value": "",
                                            "placeholder": "",
                                            "prepend": "",
                                            "append": "",
                                            "maxlength": ""
                                        },
                                        {
                                            "key": "field_5db0d617be3c3",
                                            "label": "Answer",
                                            "name": "answer",
                                            "type": "textarea",
                                            "instructions": "",
                                            "required": 0,
                                            "conditional_logic": 0,
                                            "wrapper": {
                                                "width": "",
                                                "class": "",
                                                "id": ""
                                            },
                                            "default_value": "",
                                            "placeholder": "",
                                            "maxlength": "",
                                            "rows": "",
                                            "new_lines": ""
                                        }
                                    ]
                                }
                            ],
                            "min": "",
                            "max": ""
                        }
                    },
                    "button_label": "Choose Block",
                    "min": "",
                    "max": 1
                },
                {
                    "key": "field_5d1cd6b51ab79",
                    "label": "Options",
                    "name": "",
                    "type": "tab",
                    "instructions": "",
                    "required": 0,
                    "conditional_logic": 0,
                    "wrapper": {
                        "width": "",
                        "class": "",
                        "id": ""
                    },
                    "placement": "top",
                    "endpoint": 0
                },
                {
                    "key": "field_5526a7bd39313",
                    "label": "Background",
                    "name": "background",
                    "type": "button_group",
                    "instructions": "",
                    "required": 0,
                    "conditional_logic": 0,
                    "wrapper": {
                        "width": "",
                        "class": "",
                        "id": ""
                    },
                    "choices": {
                        "transparent": "<span class=\"dashicons dashicons-hidden\"><\/span>",
                        "color": "<span class=\"dashicons dashicons-art\"><\/span> Color",
                        "image": "<span class=\"dashicons dashicons-format-image\"><\/span> Image"
                    },
                    "allow_null": 0,
                    "default_value": "",
                    "layout": "horizontal",
                    "return_format": "value"
                },
                {
                    "key": "field_5526aac5c4968",
                    "label": "Background Color",
                    "name": "bg_color",
                    "type": "button_group",
                    "instructions": "<em>Select from from the brand colors or pick a custom color.<\/em>",
                    "required": 0,
                    "conditional_logic": [
                        [
                            {
                                "field": "field_5526a7bd39313",
                                "operator": "==",
                                "value": "color"
                            }
                        ]
                    ],
                    "wrapper": {
                        "width": "",
                        "class": "",
                        "id": ""
                    },
                    "choices": {
                        "gray": "Gray",
                        "primary": "Primary",
                        "secondary": "Secondary",
                        "custom": "Custom"
                    },
                    "allow_null": 0,
                    "default_value": "",
                    "layout": "horizontal",
                    "return_format": "value"
                },
                {
                    "key": "field_5526a7f339314",
                    "label": "Custom Background Color",
                    "name": "bg_color_custom",
                    "type": "color_picker",
                    "instructions": "",
                    "required": 0,
                    "conditional_logic": [
                        [
                            {
                                "field": "field_5526a7bd39313",
                                "operator": "==",
                                "value": "color"
                            },
                            {
                                "field": "field_5526aac5c4968",
                                "operator": "==",
                                "value": "custom"
                            }
                        ]
                    ],
                    "wrapper": {
                        "width": "",
                        "class": "",
                        "id": ""
                    },
                    "default_value": ""
                },
                {
                    "key": "field_5526a80639315",
                    "label": "Background Image",
                    "name": "bg_image",
                    "type": "image",
                    "instructions": "",
                    "required": 0,
                    "conditional_logic": [
                        [
                            {
                                "field": "field_5526a7bd39313",
                                "operator": "==",
                                "value": "image"
                            }
                        ]
                    ],
                    "wrapper": {
                        "width": "",
                        "class": "",
                        "id": ""
                    },
                    "return_format": "url",
                    "preview_size": "thumbnail",
                    "library": "all",
                    "min_width": "",
                    "min_height": "",
                    "min_size": "",
                    "max_width": "",
                    "max_height": "",
                    "max_size": "",
                    "mime_types": ""
                },
                {
                    "key": "field_55ba59acadab0",
                    "label": "Margin",
                    "name": "mod_margin",
                    "type": "text",
                    "instructions": "<em>Any of the <a href=\"http:\/\/www.w3schools.com\/css\/css_margin.asp\" target=\"_blank\">standard CSS margin properties<\/a> will work here.<\/em>",
                    "required": 0,
                    "conditional_logic": 0,
                    "wrapper": {
                        "width": "",
                        "class": "",
                        "id": ""
                    },
                    "default_value": "",
                    "placeholder": "30px",
                    "prepend": "",
                    "append": "",
                    "maxlength": ""
                },
                {
                    "key": "field_55ba59c1adab1",
                    "label": "Padding",
                    "name": "mod_padding",
                    "type": "text",
                    "instructions": "<em>Any of the <a href=\"http:\/\/www.w3schools.com\/css\/css_padding.asp\" target=\"_blank\">standard CSS padding properties<\/a> will work here.<\/em>",
                    "required": 0,
                    "conditional_logic": 0,
                    "wrapper": {
                        "width": "",
                        "class": "",
                        "id": ""
                    },
                    "default_value": "",
                    "placeholder": "30px",
                    "prepend": "",
                    "append": "",
                    "maxlength": "",
                    "readonly": 0,
                    "disabled": 0
                }
            ]
        }
    ],
    "location": [
        [
            {
                "param": "post_type",
                "operator": "==",
                "value": "page"
            }
        ],
        [
            {
                "param": "post_type",
                "operator": "==",
                "value": "post"
            }
        ]
    ],
    "menu_order": 1,
    "position": "acf_after_title",
    "style": "default",
    "label_placement": "top",
    "instruction_placement": "label",
    "hide_on_screen": "",
    "active": 1,
    "description": "",
    "modified": 1572986723
}